QB Statistics - A Hugo website
…
alpha0 <- m$estimate[1]
beta0 <- m$estimate[2]

OMG perfect, its so great! We gain a bit of extra interactivity barely any cost. You can now manipulate the plot area with zoom and drag features and get data attributes with hover-over capability but that’s about it.

I relied on this workflow for a long time due to its simplicity and to be quite honest I was a bit afraid of the plot syntax. The above example is reproduced below using plotly:

qb_stats_filtered %>%
  mutate(eb_estimate = (Cmp + alpha0) / (Att + alpha0 + beta0)) %>%
  ggplot() +
  geom_point(aes(comp_per, eb_estimate)) +
  coord_equal()

## # A tibble: 30 x 14
##    year...1 Player...2   Cmp...3 Att...4 comp_~1 eb_es~2 ratio~3 year.~4 Playe~5
##       <dbl> <chr>          <int>   <int>   <dbl>   <dbl>   <dbl>   <dbl> <chr>  
##  1     2021 Kyler Murray     102     134   0.761   0.698 -0.0834    2021 Kyler ~
##  2     2021 Dak Prescott     100     133   0.752   0.693 -0.0782    2021 Dak Pr~
##  3     2021 Joe Burrow        78     107   0.729   0.678 -0.0705    2021 Patric~
##  4     2021 Russell Wil~      79     109   0.725   0.676 -0.0670    2021 Joe Bu~
##  5     2021 Patrick Mah~     102     141   0.723   0.681 -0.0587    2021 Russel~
##  6     2021 Teddy Bridg~      80     111   0.721   0.675 -0.0636    2021 Teddy ~
##  7     2021 Mac Jones        112     160   0.7     0.671 -0.0408    2021 Mac Jo~
##  8     2021 Taylor Hein~      82     118   0.695   0.665 -0.0435    2021 Justin~
##  9     2021 Justin Herb~     113     164   0.689   0.666 -0.0333    2021 Kirk C~
## 10     2021 Kirk Cousins     108     157   0.688   0.665 -0.0333    2021 Taylor~
## # ... with 20 more rows, 5 more variables: Cmp...10 <int>, Att...11 <int>,
## #   comp_per...12 <dbl>, eb_estimate...13 <dbl>, ratio...14 <dbl>, and
## #   abbreviated variable names 1: comp_per...5, 2: eb_estimate...6,
## #   3: ratio...7, 4: year...8, 5: Player...9
…
